{
    "functions": {
        "api/app.js": {
            "runtime": "vercel-node@14"
        }
    },
    "routes": [
        {
            "src": "/api/submit",
            "dest": "/api/app.js"
        },
        {
            "src": "/(.*)",
            "dest": "/app.js"
        }
    ]
}